0 -> 299
1 -> 245
2 -> 103
3 -> 91
4 -> 306
5 -> 130
6 -> 229
7 -> 86
8 -> 209
9 -> 70
10 -> 64
11 -> 95
12 -> 377
13 -> 355
14 -> 274
15 -> 85
16 -> 225
17 -> 98
18 -> 340
19 -> 112
20 -> 398
21 -> 230
22 -> 387
23 -> 38
24 -> 336
25 -> 81
26 -> 278
27 -> 321,41
28 -> 7
29 -> 235
30 -> 295
31 -> 283
32 -> 172
33 -> 329
34 -> 212
35 -> 90
36 -> 282
37 -> 56
38 -> 326
39 -> 49
40 -> 1
41 -> 199
42 -> 285,363
43 -> 152
44 -> 305
45 -> 191
46 -> 129
47 -> 108
48 -> 190
49 -> 148
50 -> 37
51 -> 218
52 -> 104
53 -> 258,175
54 -> 303
55 -> 139
56 -> 106
57 -> 26,26
58 -> 228
59 -> 178
60 -> 311
61 -> 40
62 -> 11
63 -> 318
64 -> 371
65 -> 242
66 -> 127
67 -> 373
68 -> 301
69 -> 101
70 -> 389
71 -> 354
72 -> 41
73 -> 140
74 -> 132
75 -> 55,114
76 -> 255,243
77 -> 43
78 -> 202,214
79 -> 267
80 -> 30
81 -> 289
82 -> 163
83 -> 304
84 -> 51
85 -> 5
86 -> 330
87 -> 333
88 -> 198
89 -> 155
90 -> 122
91 -> 18
92 -> 254
93 -> 279
94 -> 201
95 -> 111
96 -> 136
97 -> 273
98 -> 67
99 -> 374
100 -> 240
101 -> 302
102 -> 142
103 -> 349,10
104 -> 385
105 -> 272
106 -> 383,259
107 -> 224
108 -> 332
109 -> 237
110 -> 115
111 -> 175
112 -> 126
113 -> 63
114 -> 220
115 -> 346
116 -> 357
117 -> 363
118 -> 344
119 -> 59
120 -> 110
121 -> 24
122 -> 57
123 -> 361
124 -> 214
125 -> 196
126 -> 9
127 -> 96
128 -> 48
129 -> 33
130 -> 376
131 -> 325
132 -> 174
133 -> 28
134 -> 32
135 -> 266
136 -> 154
137 -> 380
138 -> 194
139 -> 162
140 -> 296
141 -> 75
142 -> 77
143 -> 205
144 -> 395
145 -> 352
146 -> 309
147 -> 284
148 -> 351
149 -> 74
150 -> 2
151 -> 328,326
152 -> 368
153 -> 343
154 -> 319
155 -> 275
156 -> 342
157 -> 327
158 -> 58
159 -> 337
160 -> 35
161 -> 3
162 -> 22
163 -> 243
164 -> 168
165 -> 293
166 -> 120
167 -> 268
168 -> 314
169 -> 123
170 -> 259
171 -> 13
172 -> 158
173 -> 244
174 -> 369
175 -> 338
176 -> 131
177 -> 62
178 -> 366
179 -> 183
180 -> 157
181 -> 375
182 -> 251
183 -> 360
184 -> 153
185 -> 339
186 -> 260
187 -> 195,8
188 -> 233
189 -> 232
190 -> 121
191 -> 362
192 -> 345
193 -> 394
194 -> 150
195 -> 80
196 -> 226
197 -> 181
198 -> 102
199 -> 0
200 -> 145
201 -> 204
202 -> 316
203 -> 223
204 -> 188
205 -> 247
206 -> 347
207 -> 292
208 -> 164
209 -> 239
210 -> 100
211 -> 8
212 -> 109
213 -> 72
214 -> 176
215 -> 391
216 -> 128
217 -> 19
218 -> 281
219 -> 323
220 -> 238
221 -> 156
222 -> 45
223 -> 93
224 -> 124
225 -> 53
226 -> 151
227 -> 182
228 -> 82
229 -> 215
230 -> 138
231 -> 73
232 -> 396
233 -> 280
234 -> 159
235 -> 54
236 -> 84
237 -> 365
238 -> 52
239 -> 297
240 -> 118
241 -> 392
242 -> 146
243 -> 388
244 -> 16
245 -> 288,44
246 -> 271
247 -> 248
248 -> 27
249 -> 310
250 -> 313
251 -> 14
252 -> 23
253 -> 170
254 -> 29
255 -> 134
256 -> 264
257 -> 221
258 -> 179
259 -> 113
260 -> 169
261 -> 206
262 -> 307
263 -> 317
264 -> 353
265 -> 6
266 -> 359
267 -> 177
268 -> 382
269 -> 308
270 -> 65
271 -> 180
272 -> 277
273 -> 234
274 -> 193,147
275 -> 42
276 -> 165
277 -> 222
278 -> 246
279 -> 241
280 -> 397
281 -> 257
282 -> 399
283 -> 119
284 -> 249
285 -> 117
286 -> 192
287 -> 20
288 -> 320
289 -> 17
290 -> 89
291 -> 253
292 -> 114
293 -> 294
294 -> 286
295 -> 135
296 -> 367
297 -> 21
298 -> 250
299 -> 78
300 -> 350
301 -> 99
302 -> 46
303 -> 381
304 -> 356
305 -> 31
306 -> 290
307 -> 185
308 -> 211
310 -> 125
311 -> 166
312 -> 263
313 -> 216
314 -> 315
315 -> 298
316 -> 261
317 -> 15
318 -> 61
319 -> 68
320 -> 69
321 -> 133
322 -> 213
323 -> 197
324 -> 66
325 -> 189
326 -> 276
327 -> 265
328 -> 252
329 -> 44
330 -> 322
331 -> 393
332 -> 160
333 -> 324
334 -> 12
335 -> 161
336 -> 186
337 -> 300
338 -> 71
339 -> 219
340 -> 348
341 -> 97
342 -> 287
343 -> 10
344 -> 141
345 -> 331
346 -> 149
347 -> 107
348 -> 76
349 -> 203
350 -> 386
351 -> 378
352 -> 94
353 -> 291
354 -> 370
355 -> 217
356 -> 173
357 -> 256
358 -> 372
359 -> 269
360 -> 79
361 -> 208
362 -> 87
363 -> 341
364 -> 25
365 -> 210
366 -> 335
367 -> 334
368 -> 384
369 -> 379
370 -> 187
371 -> 36
372 -> 60
373 -> 34
374 -> 105
375 -> 144
376 -> 167
377 -> 236
378 -> 358
379 -> 39
380 -> 184
381 -> 270
382 -> 364,118
383 -> 116
384 -> 262
385 -> 50
386 -> 227
387 -> 200
388 -> 390
389 -> 147
390 -> 47
391 -> 4
392 -> 137
393 -> 83
394 -> 171
395 -> 88
396 -> 92
397 -> 207
398 -> 231
399 -> 143
